%YAML 1.1
%TAG !u! tag:unity3d.com,2011:
--- !u!1 &1614385807860960727
GameObject:
  m_ObjectHideFlags: 0
  m_CorrespondingSourceObject: {fileID: 0}
  m_PrefabInstance: {fileID: 0}
  m_PrefabAsset: {fileID: 0}
  serializedVersion: 6
  m_Component:
  - component: {fileID: 1614385807860960724}
  - component: {fileID: 1614385807860960725}
  - component: {fileID: 1614385807860960722}
  m_Layer: 0
  m_Name: GameManager
  m_TagString: Untagged
  m_Icon: {fileID: 0}
  m_NavMeshLayer: 0
  m_StaticEditorFlags: 0
  m_IsActive: 1
--- !u!4 &1614385807860960724
Transform:
  m_ObjectHideFlags: 0
  m_CorrespondingSourceObject: {fileID: 0}
  m_PrefabInstance: {fileID: 0}
  m_PrefabAsset: {fileID: 0}
  m_GameObject: {fileID: 1614385807860960727}
  m_LocalRotation: {x: 0, y: 0, z: 0, w: 1}
  m_LocalPosition: {x: 458.5502, y: 211.36491, z: -40.875}
  m_LocalScale: {x: 1, y: 1, z: 1}
  m_Children: []
  m_Father: {fileID: 0}
  m_RootOrder: 0
  m_LocalEulerAnglesHint: {x: 0, y: 0, z: 0}
--- !u!114 &1614385807860960725
MonoBehaviour:
  m_ObjectHideFlags: 0
  m_CorrespondingSourceObject: {fileID: 0}
  m_PrefabInstance: {fileID: 0}
  m_PrefabAsset: {fileID: 0}
  m_GameObject: {fileID: 1614385807860960727}
  m_Enabled: 1
  m_EditorHideFlags: 0
  m_Script: {fileID: 11500000, guid: 3c6b6fdaee5f4ec46b1ce0e0b4bb0ac2, type: 3}
  m_Name: 
  m_EditorClassIdentifier: 
  photonManager: {fileID: 1614385807860960722}
  mainManager: {fileID: 0}
  gameSceneManager: {fileID: 0}
--- !u!114 &1614385807860960722
MonoBehaviour:
  m_ObjectHideFlags: 0
  m_CorrespondingSourceObject: {fileID: 0}
  m_PrefabInstance: {fileID: 0}
  m_PrefabAsset: {fileID: 0}
  m_GameObject: {fileID: 1614385807860960727}
  m_Enabled: 1
  m_EditorHideFlags: 0
  m_Script: {fileID: 11500000, guid: 080461d9ef9c6c349b4fc5ac34cfad82, type: 3}
  m_Name: 
  m_EditorClassIdentifier: 
  isInitPhoton: 0
  isJoinedLobby: 0
  isJoinedRoom: 0
  isRoomMake: 0
